{
    "results": [
        {
            "date": "01/01/2017",
            "sets": [
                {"reps": "8", "weight": "15"},
                {"reps": "8", "weight": "17"},
                {"reps": "8", "weight": "17"}
            ]
        },
        {
            "date": "02/01/2017",
            "sets": [
                {"reps": "8", "weight": "20"},
                {"reps": "8", "weight": "22"},
                {"reps": "6", "weight": "25"}
            ]
        },{
            "date": "03/01/2017",
            "sets": [
                {"reps": "8", "weight": "20"},
                {"reps": "7", "weight": "25"},
                {"reps": "4", "weight": "27"}
            ]
        }
    ],
    "config": {
        "units": "kg"
    }
}
